<svg version="1.1"
	 id="Layer_1" xmlns:v="http://schemas.microsoft.com/visio/2003/SVGExtensions/" xmlns:ev="http://www.w3.org/2001/xml-events"
	 xmlns="http://www.w3.org/2000/svg" xmlns:xlink="http://www.w3.org/1999/xlink" x="0px" y="0px" width="175.74px" height="64.4px"
	 viewBox="18.244 18.241 175.74 64.4" enable-background="new 18.244 18.241 175.74 64.4" xml:space="preserve">
		
		<linearGradient id="anim"  fy="0">
      <stop offset="0" stop-color="#148F01">
		</stop>
		<stop offset=".7" stop-color="#9AFC8A">
		</stop>
    </linearGradient>
        <g transform="translate(24.4546,-18.24)">
			<g>
				<path fill="#646464"  d="M168.53,54.112c0.55,0,1,0.45,1,1v27.76c0,0.55-0.45,1-1,1h-68.86c-0.55,0-1,0.45-1,1v15.01
					c0,0.55-0.45,1-1,1H-5.211c-0.55,0-1-0.45-1-1v-62.4c0-0.55,0.45-1,1-1h99.03c0.55,0,1,0.45,1,1v4.43c0,0.55,0.45,1,1,1h35.859
					c0.55,0,1,0.45,1,1v9.2c0,0.55,0.45,1,1,1H168.53z" >
        </path>
			</g>
		</g>
</svg>
